{
  "project_info": {
    "project_number": "257541082021",
    "firebase_url": "https://ecocash-86a78.firebaseio.com",
    "project_id": "ecocash-86a78",
    "storage_bucket": "ecocash-86a78.appspot.com"
  },
  "client": [
    {
      "client_info": {
        "mobilesdk_app_id": "1:257541082021:android:5a0ca071d5469f21",
        "android_client_info": {
          "package_name": "co.neolab.ecocash"
        }
      },
      "oauth_client": [
        {
          "client_id": "257541082021-ti3n8jos1cvnv5d6ku9mgeq3ln8604jk.apps.googleusercontent.com",
          "client_type": 1,
          "android_info": {
            "package_name": "co.neolab.ecocash",
            "certificate_hash": "9822c6ab7a88e95bfc543dd4bd67da8173fb6ec0"
          }
        },
        {
          "client_id": "257541082021-dcjb6tliqvu3jpmpm14ivns59eqm6tlh.apps.googleusercontent.com",
          "client_type": 1,
          "android_info": {
            "package_name": "co.neolab.ecocash",
            "certificate_hash": "e7ce6d4d348cd1969df0c7611782e14ac0aee669"
          }
        },
        {
          "client_id": "257541082021-avkt73hoe2p8u83s6kmjhfprbn3n48nj.apps.googleusercontent.com",
          "client_type": 3
        }
      ],
      "api_key": [
        {
          "current_key": "AIzaSyAbxf5gL89NquOlN1YzLv-vxt8ljGSx-5c"
        }
      ],
      "services": {
        "analytics_service": {
          "status": 1
        },
        "appinvite_service": {
          "status": 2,
          "other_platform_oauth_client": [
            {
              "client_id": "257541082021-avkt73hoe2p8u83s6kmjhfprbn3n48nj.apps.googleusercontent.com",
              "client_type": 3
            }
          ]
        },
        "ads_service": {
          "status": 2
        }
      }
    }
  ],
  "configuration_version": "1"
}